…
``` r
get_heat_table()
```

    ## Warning: Setting row names on a tibble is deprecated.

    ## [1] "heat_table filtered by FDR < 1"

    ## # A tibble: 1,102 × 73
    ##    `10% (-)-2-Octanol` `1% (-)-Menthol` `10% (+)-2-Octanol` `1% (+)-Menthol`
    ##  *               <dbl>            <dbl>               <dbl>            <dbl>
    ##  1                3.42            0.266                2.84           0.425 
    ##  2                2.22            0.129                1.90          -0.193 
    ##  3                2.53            0.588                2.80          -0.176 
    ##  4                2.68           -0.246                3.03          -0.836 
    ##  5                1.90            0.312                2.12          -0.0861
    ##  6                1.80            0.156                1.62          -0.533 
    ##  7                1.81            0.192                1.41          -0.0169
    ##  8                2.30           -0.556                2.42          -0.638 
    ##  9                1.99            1.16                 2.03           0.369 
    ## 10                2.22            0.519                2.74           0.573 
    ## # … with 1,092 more rows, and 69 more variables: 1% 2-Phenylethanol <dbl>,
    ## #   1% Citronellol <dbl>, 1% Guaiacol <dbl>, 1% Linalool <dbl>,
    ## #   1% p-Cresol <dbl>, 1% 2-Methyl-2-pentenal <dbl>, 0.01% Anisaldehyde <dbl>,
    ## #   1% Benzaldehyde <dbl>, 0.01% Citral <dbl>, 1% Heptanal <dbl>,
    ## #   1% Octanal <dbl>, 1% Trans-cinnamaldehyde <dbl>, 1% Butyric acid <dbl>,
    ## #   1% Heptanoic acid <dbl>, 0.1% Isovaleric acid <dbl>,
    ## #   1% Ethyl butyrate <dbl>, 1% Isoamyl acetate <dbl>, …
…
